/* By Per Dahlstroem */
/* V05: All 3 interfaces in one zone */
version 12.1X47-D15.4;
system {
    host-name vSRX_2;
    /* User: root Password: Rootpass */
    root-authentication {
        encrypted-password "$1$4TkbZDtp$6E8C6Bg7K6gnHR31XnJjl0";  
    }
}
interfaces {
    ge-0/0/1 {
        unit 0 {
            family inet {
                address 192.168.12.1/24;
            }
        }
    }
    ge-0/0/2 {
        unit 0 {
            family inet {
                address 192.168.13.1/24;
            }
        }
    }
    ge-0/0/4 {
        unit 0 {
            family inet {
                address 10.10.10.1/30;
            }
        }
    }
}
routing-options {
    static {
        route 192.168.12.0/24 next-hop 10.10.10.2;
        route 192.168.13.0/24 next-hop 10.10.10.2;
    }
}
security {
    address-book {
        global {
            address SENSOR_LAN 192.168.10.0/24;
            address SERVER_LAN 192.168.11.0/24;
            address WEB_SERVER 192.168.11.2/32;
            address PC4 192.168.13.2/32;
            address-set SENSOR_AND_SERVER_LANS {
                address SENSOR_LAN;
                address SERVER_LAN;
            }
            address-set SENSOR_LAN_AND_PC4 {
                address SENSOR_LAN;
                address PC4;
            }
        }
    }
    policies {
        from-zone myTrust_1 to-zone myTrust_1 {
            policy allow-icmp-from-sensor-and-server-lans-to-any {
                match {
                    source-address SENSOR_AND_SERVER_LANS;
                    destination-address any;
                    /* udp enables traceroute */
                    application [ junos-icmp-ping junos-udp-any ];
                }
                then {
                    permit;
                }
            }
            policy allow-sensors-and-PC4-to-access-http-servers {
                match {
                    source-address SENSOR_LAN_AND_PC4;
                    destination-address WEB_SERVER;
                    application [ junos-http my-http-8000 ];
                }
                then {
                    permit;
                }
            }
        }
        default-policy {
            deny-all;
        }
    }

    zones {
        security-zone myTrust_1 {
            interfaces {
                ge-0/0/1.0;
                ge-0/0/2.0;
                ge-0/0/4.0;
            }
            host-inbound-traffic {
                system-services {
                    ping;
                    traceroute;
                }
            }

        }
    }
}
applications {
    /* Allow acces to web server on tcp port 8000 */
    application my-http-8000 {
        application-protocol http;
        protocol tcp; /* Protocol at layers below application layer */
        destination-port 8000;
    }
}